line_of_business,group_ind,valuation_date,start_date,end_date
14,i,12/31/2020,12/1/2020,12/31/9999
15,g,12/31/2020,12/1/2020,12/31/9999
14,i,3/31/2021,12/1/2020,12/31/9999
15,g,3/31/2021,12/1/2020,12/31/9999
14,i,6/30/2021,12/1/2020,12/31/9999
15,g,6/30/2021,12/1/2020,12/31/9999
14,i,9/30/2021,12/1/2020,12/31/9999
15,g,9/30/2021,12/1/2020,12/31/9999
14,i,12/31/2021,12/1/2020,12/31/9999
15,g,12/31/2021,12/1/2020,12/31/9999
