legal_entity_code,legal_entity_name,valuation_date,start_date,end_date
07,TLIC,12/31/2020,1/1/2020,12/31/9999
10,TFLIC,12/31/2020,1/1/2020,12/31/9999
20,TPLIC,12/31/2020,1/1/2020,12/31/9999
07,TLIC,3/31/2021,1/1/2020,12/31/9999
10,TFLIC,3/31/2021,1/1/2020,12/31/9999
20,TPLIC,3/31/2021,1/1/2020,12/31/9999
07,TLIC,6/30/2021,1/1/2020,12/31/9999
10,TFLIC,6/30/2021,1/1/2020,12/31/9999
20,TPLIC,6/30/2021,1/1/2020,12/31/9999
07,TLIC,9/30/2021,1/1/2020,12/31/9999
10,TFLIC,9/30/2021,1/1/2020,12/31/9999
20,TPLIC,9/30/2021,1/1/2020,12/31/9999
07,TLIC,12/31/2021,1/1/2020,12/31/9999
10,TFLIC,12/31/2021,1/1/2020,12/31/9999
20,TPLIC,12/31/2021,1/1/2020,12/31/9999
